{
  "type": "root",
  "id": "root",
  "linkId": "",
  "color": "auto",
  "css": "",
  "default": "",
  "value": "",
  "precision": 2,
  "address": "/root",
  "preArgs": "",
  "target": "",
  "bypass": false,
  "traversing": false,
  "variables": {},
  "tabs": [
    {
      "type": "tab",
      "id": "tab_1",
      "linkId": "",
      "label": "auto",
      "color": "auto",
      "css": "",
      "default": "",
      "value": "",
      "precision": 2,
      "address": "/tab_1",
      "preArgs": "",
      "target": "",
      "bypass": false,
      "variables": "@{parent.variables}",
      "widgets": [
        {
          "type": "multixy",
          "top": 0,
          "left": 0,
          "id": "multixy_1",
          "linkId": "",
          "width": "90%",
          "height": "100%",
          "label": "auto",
          "color": "auto",
          "css": "",
          "pips": true,
          "snap": false,
          "spring": false,
          "sensitivity": 1,
          "default": "",
          "value": "",
          "precision": 2,
          "address": "/multixy_1",
          "preArgs": "",
          "target": "",
          "bypass": false,
          "touchAddress": "",
          "points": 8,
          "pointSize": 20,
          "rangeX": {
            "min": -10,
            "max": 10
          },
          "rangeY": {
            "min": -10,
            "max": 10
          },
          "logScaleX": false,
          "logScaleY": false,
          "split": false
        },
        {
          "type": "fader",
          "top": 0,
          "left": "90%",
          "id": "fader_1",
          "linkId": "",
          "width": "10%",
          "height": "100%",
          "label": "auto",
          "color": "auto",
          "css": "",
          "horizontal": false,
          "alignRight": false,
          "pips": true,
          "input": true,
          "meter": false,
          "compact": false,
          "dashed": false,
          "snap": false,
          "spring": false,
          "doubleTap": false,
          "range": {
            "min": -10,
            "max": 10
          },
          "logScale": false,
          "sensitivity": 1,
          "steps": "",
          "unit": "m",
          "origin": 0,
          "default": "",
          "value": "",
          "precision": 2,
          "address": "/fader_1",
          "preArgs": "",
          "target": "",
          "bypass": false,
          "touchAddress": "",
          "meterAddress": ""
        }
      ],
      "tabs": [],
      "scroll": true
    }
  ],
  "scroll": true,
  "label": false
}